<svg xmlns="http://www.w3.org/2000/svg" xmlns:xlink="http://www.w3.org/1999/xlink" preserveAspectRatio="xMidYMid" width="21.031" height="24" viewBox="0 0 21.031 24">
  <defs>
    <style>
      .cls-1 {
        fill: #000;
        opacity: 0.5;
        fill-rule: evenodd;
      }
    </style>
  </defs>
  <path d="M20.727,15.504 L16.228,10.939 C15.994,10.700 15.744,10.650 15.575,10.650 C15.300,10.650 15.031,10.779 14.775,11.030 C14.475,11.325 13.616,12.171 13.525,12.224 C12.909,12.224 11.244,10.972 9.937,9.298 C9.073,8.193 8.955,7.631 8.943,7.577 L10.313,6.227 C10.496,6.047 10.598,5.805 10.599,5.548 C10.601,5.291 10.503,5.050 10.326,4.870 L5.844,0.280 C5.491,-0.086 4.861,-0.096 4.490,0.266 C4.340,0.414 4.183,0.562 4.024,0.713 C2.913,1.762 1.654,2.951 1.614,4.932 C1.566,7.299 3.293,10.193 7.047,14.039 C9.596,16.651 12.918,19.648 16.013,19.648 L16.014,19.648 C16.980,19.648 17.865,19.344 18.661,18.772 C18.757,19.545 18.656,20.856 17.341,22.178 C16.659,22.864 15.860,23.003 15.298,22.975 C14.282,22.948 13.244,22.447 12.505,21.621 L4.994,13.883 C4.284,13.306 2.542,12.597 1.010,14.041 C1.008,14.044 0.936,14.115 0.934,14.117 C0.339,14.711 0.011,15.503 0.010,16.346 C0.009,17.190 0.335,17.982 0.928,18.578 L3.551,21.213 C3.750,21.412 4.071,21.412 4.270,21.213 C4.468,21.013 4.468,20.690 4.270,20.491 L1.647,17.856 C1.246,17.453 1.026,16.917 1.027,16.347 C1.027,15.777 1.249,15.243 1.710,14.782 C2.945,13.616 4.216,14.567 4.310,14.635 L11.763,22.318 C12.669,23.333 13.981,23.961 15.270,23.995 C15.310,23.996 15.348,23.997 15.387,23.997 C16.422,23.997 17.344,23.619 18.060,22.900 C20.069,20.880 19.769,18.819 19.544,18.016 C19.940,17.629 20.698,16.887 20.745,16.836 C21.096,16.460 21.090,15.875 20.727,15.504 ZM18.616,17.499 L18.528,17.580 C17.780,18.286 16.958,18.627 16.014,18.627 L16.013,18.627 C13.296,18.627 10.182,15.794 7.772,13.325 C4.271,9.738 2.589,6.999 2.630,4.952 C2.661,3.401 3.708,2.413 4.720,1.457 C4.885,1.301 5.047,1.148 5.117,0.994 L9.600,5.498 L8.219,6.862 C7.897,7.202 7.879,7.710 8.163,8.373 C8.892,10.077 11.933,13.244 13.525,13.244 C13.713,13.244 13.884,13.205 14.026,13.133 C14.072,13.111 14.184,13.033 14.221,12.998 C14.307,12.918 15.182,12.059 15.486,11.760 C15.513,11.733 15.535,11.714 15.549,11.700 L20.008,16.133 C19.928,16.214 18.692,17.427 18.616,17.499 Z" class="cls-1"/>
</svg>
