<svg xmlns="http://www.w3.org/2000/svg" xmlns:xlink="http://www.w3.org/1999/xlink" preserveAspectRatio="xMidYMid" width="18.25" height="20" viewBox="0 0 18.25 20">
  <defs>
    <style>
      .cls-1 {
        fill: #666;
        fill-rule: evenodd;
      }
    </style>
  </defs>
  <path d="M16.049,9.952 L16.049,19.566 C16.049,19.806 15.854,20.001 15.614,20.001 C15.374,20.001 15.180,19.806 15.180,19.566 L15.180,9.952 C13.930,9.744 12.973,8.663 12.973,7.355 C12.973,6.048 13.930,4.967 15.180,4.758 L15.180,0.433 C15.180,0.193 15.374,-0.002 15.614,-0.002 C15.854,-0.002 16.049,0.193 16.049,0.433 L16.049,4.758 C17.298,4.967 18.256,6.048 18.256,7.355 C18.256,8.663 17.298,9.744 16.049,9.952 ZM15.614,5.583 C14.637,5.583 13.842,6.378 13.842,7.355 C13.842,8.332 14.637,9.128 15.614,9.128 C16.592,9.128 17.387,8.332 17.387,7.355 C17.387,6.378 16.592,5.583 15.614,5.583 ZM9.542,16.987 L9.542,19.566 C9.542,19.806 9.347,20.001 9.107,20.001 C8.867,20.001 8.673,19.806 8.673,19.566 L8.673,16.987 C7.423,16.778 6.466,15.697 6.466,14.390 C6.466,13.083 7.423,12.002 8.673,11.793 L8.673,0.433 C8.673,0.193 8.867,-0.002 9.107,-0.002 C9.347,-0.002 9.542,0.193 9.542,0.433 L9.542,11.793 C10.791,12.002 11.749,13.083 11.749,14.390 C11.749,15.697 10.791,16.778 9.542,16.987 ZM9.107,12.618 C8.130,12.618 7.335,13.413 7.335,14.390 C7.335,15.367 8.130,16.162 9.107,16.162 C10.085,16.162 10.880,15.367 10.880,14.390 C10.880,13.413 10.085,12.618 9.107,12.618 ZM3.069,6.561 L3.069,19.566 C3.069,19.806 2.875,20.001 2.635,20.001 C2.395,20.001 2.200,19.806 2.200,19.566 L2.200,6.561 C0.951,6.352 -0.007,5.272 -0.007,3.965 C-0.007,2.657 0.951,1.577 2.200,1.368 L2.200,0.433 C2.200,0.193 2.395,-0.002 2.635,-0.002 C2.875,-0.002 3.069,0.193 3.069,0.433 L3.069,1.368 C4.319,1.577 5.277,2.657 5.277,3.965 C5.277,5.272 4.319,6.353 3.069,6.561 ZM2.635,2.193 C1.657,2.193 0.863,2.988 0.863,3.965 C0.863,4.942 1.657,5.737 2.635,5.737 C3.612,5.737 4.408,4.942 4.408,3.965 C4.408,2.988 3.612,2.193 2.635,2.193 Z" class="cls-1"/>
</svg>
